module gitlab.com/ak-expansive/ships

go 1.14

require (
	github.com/google/uuid v1.1.1
	github.com/gorilla/handlers v1.4.2
	github.com/gorilla/mux v1.7.4
	github.com/jinzhu/gorm v1.9.16
	github.com/urfave/cli/v2 v2.2.0
)
